%!PS-Adobe-3.0
%%Creator: Model Technology ModelSim PE Student Edition vsim 10.4a Simulator 2015.03 Apr  7 2015
%%Title: wave.ps
%%CreationDate: 2016-09-27 04:18:48 pm
%%DocumentData: Clean8Bit
%%DocumentNeededResources: font Helvetica
%%Orientation: Landscape
%%PageOrder: ascend
%%Pages: 1
%%EndComments
%%BeginSetup
%%BeginFeature: *PageSize 8.5x11.0
<< /PageSize [612.0 792.0]
/ImagingBBox null
>> setpagedevice
%%EndFeature
%%EndSetup
%%Page: 1 1
gsave
90 rotate 0.12 dup neg scale
% dump string table
/NP {newpath} def/SD {setdash} def/CL {setrgbcolor} def/GR {setgray} def
/SX {exch LEdge sub XScale mul MaxLabelWidth add LMargin add LEdge LabelWidth sub add exch} def/CSX {exch dup LabelWidth gt {exch SX} {exch} ifelse} def
/MT {SX moveto} def/LS {SX lineto stroke} def/LT {SX lineto} def/LFS {SX lineto fill stroke} def/RSS {rmoveto show stroke} def/ST {stroke} def/WT {CSX moveto dup stringwidth pop} def/TSW {pop 0 originOffset} def
/TSE {MaxLabelWidth LabelWidth sub LMargin add 0 rmoveto neg originOffset} def/TS {-2 div originOffset CSX} def
/MLW {stringwidth pop dup MaxLabelWidth gt {/MaxLabelWidth exch def}{pop} ifelse XS} def
/XS {/XScale LabelWidth LMargin sub MaxLabelWidth LEdge LabelWidth sub add sub REdge LEdge sub div 1 add def} def
/ARC {5 -2 roll SX 5 2 roll arc} def/LC {1 index stringwidth pop lt {pop ()} if} def
/SW {stringwidth pop} def
/ESTR {   dup 3 add string   /CurrentStr exch def   exch 0 2 index getinterval   0 1 3 index 1 sub {     dup     2 index exch get exch     CurrentStr exch 3 -1 roll put   } for   pop   dup 1 2 2 index add {     CurrentStr exch 46 put   } for   pop} def
/LC {   exch  dup dup /CurrentStr exch def   SW 2 index gt {     CurrentStr length     dup     {       2 div cvi       3 index       CurrentStr SW       sub       dup 0 lt {         1 index         4 -1 roll         exch sub         3 1 roll       }       {         dup 5 index gt {           1 index 4 -1 roll add 3 1 roll         }         {           exit         } ifelse       } ifelse       3 index 2 index ESTR       1 index 0 eq {         exit       } if       pop     } loop     pop pop pop pop pop     CurrentStr   }   {     CurrentStr   } ifelse} def
/XScale 1 def/MaxLabelWidth 0 def/LMargin 118 def/LEdge 488 def/REdge 6244 def/LabelWidth 451 def
/Helvetica findfont [66 0 0 -66 0 0] makefont setfont
/originOffset   currentfont   /FontBBox get 1 get   currentfont  /FontMatrix get 3 get   mul   currentfont   /FontType get   42 eq {     1000000 div   } {     neg   } ifelse def
(clock) MLW
(Reset) MLW
(AddrA) MLW
(DataInA) MLW
(DOut1) MLW
(DOut2) MLW
(ADDOut) MLW
(SUBOut) MLW
(AddrB) MLW
(WEA) MLW
(IncA) MLW
(WEB) MLW
(IncB) MLW
% draw waveform shading
[] 0 SD
3 setlinewidth
0 setlinejoin
2 setlinecap
0 0 0 CL
488 211 MT 488 175 LS
489 211 MT 637 211 LS
637 211 MT 637 139 LS
638 139 MT 787 139 LS
787 211 MT 787 139 LS
788 211 MT 937 211 LS
937 211 MT 937 139 LS
938 139 MT 1087 139 LS
1087 211 MT 1087 139 LS
1088 211 MT 1236 211 LS
1236 211 MT 1236 139 LS
1237 139 MT 1386 139 LS
1386 211 MT 1386 139 LS
1387 211 MT 1536 211 LS
1536 211 MT 1536 139 LS
1537 139 MT 1686 139 LS
1686 211 MT 1686 139 LS
1687 211 MT 1835 211 LS
1835 211 MT 1835 139 LS
1836 139 MT 1985 139 LS
1985 211 MT 1985 139 LS
1986 211 MT 2135 211 LS
2135 211 MT 2135 139 LS
2136 139 MT 2285 139 LS
2285 211 MT 2285 139 LS
2286 211 MT 2435 211 LS
2435 211 MT 2435 139 LS
2436 139 MT 2584 139 LS
2584 211 MT 2584 139 LS
2585 211 MT 2734 211 LS
2734 211 MT 2734 139 LS
2735 139 MT 2884 139 LS
2884 211 MT 2884 139 LS
2885 211 MT 3034 211 LS
3034 211 MT 3034 139 LS
3035 139 MT 3183 139 LS
3183 211 MT 3183 139 LS
3184 211 MT 3333 211 LS
3333 211 MT 3333 139 LS
3334 139 MT 3483 139 LS
3483 211 MT 3483 139 LS
3484 211 MT 3633 211 LS
3633 211 MT 3633 139 LS
3634 139 MT 3783 139 LS
3783 211 MT 3783 139 LS
3784 211 MT 3932 211 LS
3932 211 MT 3932 139 LS
3933 139 MT 4082 139 LS
4082 211 MT 4082 139 LS
4083 211 MT 4232 211 LS
4232 211 MT 4232 139 LS
4233 139 MT 4382 139 LS
4382 211 MT 4382 139 LS
4383 211 MT 4531 211 LS
4531 211 MT 4531 139 LS
4532 139 MT 4681 139 LS
4681 211 MT 4681 139 LS
4682 211 MT 4831 211 LS
4831 211 MT 4831 139 LS
4832 139 MT 4981 139 LS
4981 211 MT 4981 139 LS
4982 211 MT 5131 211 LS
5131 211 MT 5131 139 LS
5132 139 MT 5280 139 LS
5280 211 MT 5280 139 LS
5281 211 MT 5430 211 LS
5430 211 MT 5430 139 LS
5431 139 MT 5580 139 LS
5580 211 MT 5580 139 LS
5581 211 MT 5730 211 LS
5730 211 MT 5730 139 LS
5731 139 MT 5879 139 LS
5879 211 MT 5879 139 LS
5880 211 MT 6029 211 LS
6029 211 MT 6029 139 LS
6030 139 MT 6179 139 LS
6179 211 MT 6179 139 LS
6180 211 MT 6329 211 LS
6329 211 MT 6329 139 LS
6330 139 MT 6479 139 LS
6479 211 MT 6479 139 LS
6479 211 MT 6479 211 LS
488 294 MT 488 258 LS
489 258 MT 607 258 LS
607 330 MT 607 258 LS
608 330 MT 6479 330 LS
6479 330 MT 6479 330 LS
(3'h0) 379 LC 523 413 WT pop 0 originOffset 33 add RSS
488 413 MT 488 413 LT 495 377 LT 930 377 LT 937 413 LT ST
488 413 MT 488 413 LT 495 449 LT 930 449 LT 937 413 LT ST
(3'h1) 229 LC 972 413 WT pop 0 originOffset 33 add RSS
937 413 MT 937 413 LT 944 377 LT 1229 377 LT 1236 413 LT ST
937 413 MT 937 413 LT 944 449 LT 1229 449 LT 1236 413 LT ST
(3'h2) 230 LC 1271 413 WT pop 0 originOffset 33 add RSS
1236 413 MT 1236 413 LT 1243 377 LT 1529 377 LT 1536 413 LT ST
1236 413 MT 1236 413 LT 1243 449 LT 1529 449 LT 1536 413 LT ST
(3'h3) 229 LC 1571 413 WT pop 0 originOffset 33 add RSS
1536 413 MT 1536 413 LT 1543 377 LT 1828 377 LT 1835 413 LT ST
1536 413 MT 1536 413 LT 1543 449 LT 1828 449 LT 1835 413 LT ST
(3'h4) 230 LC 1870 413 WT pop 0 originOffset 33 add RSS
1835 413 MT 1835 413 LT 1842 377 LT 2128 377 LT 2135 413 LT ST
1835 413 MT 1835 413 LT 1842 449 LT 2128 449 LT 2135 413 LT ST
(3'h5) 230 LC 2170 413 WT pop 0 originOffset 33 add RSS
2135 413 MT 2135 413 LT 2142 377 LT 2428 377 LT 2435 413 LT ST
2135 413 MT 2135 413 LT 2142 449 LT 2428 449 LT 2435 413 LT ST
(3'h6) 229 LC 2470 413 WT pop 0 originOffset 33 add RSS
2435 413 MT 2435 413 LT 2442 377 LT 2727 377 LT 2734 413 LT ST
2435 413 MT 2435 413 LT 2442 449 LT 2727 449 LT 2734 413 LT ST
(3'h7) 230 LC 2769 413 WT pop 0 originOffset 33 add RSS
2734 413 MT 2734 413 LT 2741 377 LT 3027 377 LT 3034 413 LT ST
2734 413 MT 2734 413 LT 2741 449 LT 3027 449 LT 3034 413 LT ST
(3'h0) 229 LC 3069 413 WT pop 0 originOffset 33 add RSS
3034 413 MT 3034 413 LT 3041 377 LT 3326 377 LT 3333 413 LT ST
3034 413 MT 3034 413 LT 3041 449 LT 3326 449 LT 3333 413 LT ST
(3'h1) 230 LC 3368 413 WT pop 0 originOffset 33 add RSS
3333 413 MT 3333 413 LT 3340 377 LT 3626 377 LT 3633 413 LT ST
3333 413 MT 3333 413 LT 3340 449 LT 3626 449 LT 3633 413 LT ST
(3'h2) 229 LC 3668 413 WT pop 0 originOffset 33 add RSS
3633 413 MT 3633 413 LT 3640 377 LT 3925 377 LT 3932 413 LT ST
3633 413 MT 3633 413 LT 3640 449 LT 3925 449 LT 3932 413 LT ST
(3'h3) 230 LC 3967 413 WT pop 0 originOffset 33 add RSS
3932 413 MT 3932 413 LT 3939 377 LT 4225 377 LT 4232 413 LT ST
3932 413 MT 3932 413 LT 3939 449 LT 4225 449 LT 4232 413 LT ST
(3'h4) 229 LC 4267 413 WT pop 0 originOffset 33 add RSS
4232 413 MT 4232 413 LT 4239 377 LT 4524 377 LT 4531 413 LT ST
4232 413 MT 4232 413 LT 4239 449 LT 4524 449 LT 4531 413 LT ST
(3'h5) 230 LC 4566 413 WT pop 0 originOffset 33 add RSS
4531 413 MT 4531 413 LT 4538 377 LT 4824 377 LT 4831 413 LT ST
4531 413 MT 4531 413 LT 4538 449 LT 4824 449 LT 4831 413 LT ST
(3'h6) 230 LC 4866 413 WT pop 0 originOffset 33 add RSS
4831 413 MT 4831 413 LT 4838 377 LT 5124 377 LT 5131 413 LT ST
4831 413 MT 4831 413 LT 4838 449 LT 5124 449 LT 5131 413 LT ST
(3'h7) 229 LC 5166 413 WT pop 0 originOffset 33 add RSS
5131 413 MT 5131 413 LT 5138 377 LT 5423 377 LT 5430 413 LT ST
5131 413 MT 5131 413 LT 5138 449 LT 5423 449 LT 5430 413 LT ST
(3'h0) 979 LC 5465 413 WT pop 0 originOffset 33 add RSS
5430 413 MT 5430 413 LT 5437 377 LT 6479 377 LT ST
5430 413 MT 5430 413 LT 5437 449 LT 6479 449 LT ST
488 532 MT 652 532 LS
(8'h07) 230 LC 687 532 WT pop 0 originOffset 33 add RSS
652 531 MT 652 531 LT 659 496 LT 945 496 LT 952 532 LT ST
652 533 MT 652 533 LT 659 568 LT 945 568 LT 952 532 LT ST
(8'h06) 229 LC 987 532 WT pop 0 originOffset 33 add RSS
952 532 MT 952 532 LT 959 496 LT 1244 496 LT 1251 532 LT ST
952 532 MT 952 532 LT 959 568 LT 1244 568 LT 1251 532 LT ST
(8'h05) 230 LC 1286 532 WT pop 0 originOffset 33 add RSS
1251 532 MT 1251 532 LT 1258 496 LT 1544 496 LT 1551 532 LT ST
1251 532 MT 1251 532 LT 1258 568 LT 1544 568 LT 1551 532 LT ST
(8'h04) 229 LC 1586 532 WT pop 0 originOffset 33 add RSS
1551 532 MT 1551 532 LT 1558 496 LT 1843 496 LT 1850 532 LT ST
1551 532 MT 1551 532 LT 1558 568 LT 1843 568 LT 1850 532 LT ST
(8'h03) 230 LC 1885 532 WT pop 0 originOffset 33 add RSS
1850 532 MT 1850 532 LT 1857 496 LT 2143 496 LT 2150 532 LT ST
1850 532 MT 1850 532 LT 1857 568 LT 2143 568 LT 2150 532 LT ST
(8'h02) 230 LC 2185 532 WT pop 0 originOffset 33 add RSS
2150 532 MT 2150 532 LT 2157 496 LT 2443 496 LT 2450 532 LT ST
2150 532 MT 2150 532 LT 2157 568 LT 2443 568 LT 2450 532 LT ST
(8'h01) 229 LC 2485 532 WT pop 0 originOffset 33 add RSS
2450 532 MT 2450 532 LT 2457 496 LT 2742 496 LT 2749 532 LT ST
2450 532 MT 2450 532 LT 2457 568 LT 2742 568 LT 2749 532 LT ST
(8'h00) 3660 LC 2784 532 WT pop 0 originOffset 33 add RSS
2749 532 MT 2749 532 LT 2756 496 LT 6479 496 LT ST
2749 532 MT 2749 532 LT 2756 568 LT 6479 568 LT ST
488 651 MT 3333 651 LS
(8'h07) 230 LC 3368 651 WT pop 0 originOffset 33 add RSS
3333 650 MT 3333 650 LT 3340 615 LT 3626 615 LT 3633 651 LT ST
3333 652 MT 3333 652 LT 3340 687 LT 3626 687 LT 3633 651 LT ST
(8'h06) 229 LC 3668 651 WT pop 0 originOffset 33 add RSS
3633 651 MT 3633 651 LT 3640 615 LT 3925 615 LT 3932 651 LT ST
3633 651 MT 3633 651 LT 3640 687 LT 3925 687 LT 3932 651 LT ST
(8'h05) 230 LC 3967 651 WT pop 0 originOffset 33 add RSS
3932 651 MT 3932 651 LT 3939 615 LT 4225 615 LT 4232 651 LT ST
3932 651 MT 3932 651 LT 3939 687 LT 4225 687 LT 4232 651 LT ST
(8'h04) 229 LC 4267 651 WT pop 0 originOffset 33 add RSS
4232 651 MT 4232 651 LT 4239 615 LT 4524 615 LT 4531 651 LT ST
4232 651 MT 4232 651 LT 4239 687 LT 4524 687 LT 4531 651 LT ST
(8'h03) 230 LC 4566 651 WT pop 0 originOffset 33 add RSS
4531 651 MT 4531 651 LT 4538 615 LT 4824 615 LT 4831 651 LT ST
4531 651 MT 4531 651 LT 4538 687 LT 4824 687 LT 4831 651 LT ST
(8'h02) 230 LC 4866 651 WT pop 0 originOffset 33 add RSS
4831 651 MT 4831 651 LT 4838 615 LT 5124 615 LT 5131 651 LT ST
4831 651 MT 4831 651 LT 4838 687 LT 5124 687 LT 5131 651 LT ST
(8'h01) 229 LC 5166 651 WT pop 0 originOffset 33 add RSS
5131 651 MT 5131 651 LT 5138 615 LT 5423 615 LT 5430 651 LT ST
5131 651 MT 5131 651 LT 5138 687 LT 5423 687 LT 5430 651 LT ST
(8'h00) 230 LC 5465 651 WT pop 0 originOffset 33 add RSS
5430 651 MT 5430 651 LT 5437 615 LT 5723 615 LT 5730 651 LT ST
5430 651 MT 5430 651 LT 5437 687 LT 5723 687 LT 5730 651 LT ST
(8'h07) 679 LC 5765 651 WT pop 0 originOffset 33 add RSS
5730 651 MT 5730 651 LT 5737 615 LT 6479 615 LT ST
5730 651 MT 5730 651 LT 5737 687 LT 6479 687 LT ST
488 770 MT 3633 770 LS
(8'h07) 229 LC 3668 770 WT pop 0 originOffset 33 add RSS
3633 769 MT 3633 769 LT 3640 734 LT 3925 734 LT 3932 770 LT ST
3633 771 MT 3633 771 LT 3640 806 LT 3925 806 LT 3932 770 LT ST
(8'h06) 230 LC 3967 770 WT pop 0 originOffset 33 add RSS
3932 770 MT 3932 770 LT 3939 734 LT 4225 734 LT 4232 770 LT ST
3932 770 MT 3932 770 LT 3939 806 LT 4225 806 LT 4232 770 LT ST
(8'h05) 229 LC 4267 770 WT pop 0 originOffset 33 add RSS
4232 770 MT 4232 770 LT 4239 734 LT 4524 734 LT 4531 770 LT ST
4232 770 MT 4232 770 LT 4239 806 LT 4524 806 LT 4531 770 LT ST
(8'h04) 230 LC 4566 770 WT pop 0 originOffset 33 add RSS
4531 770 MT 4531 770 LT 4538 734 LT 4824 734 LT 4831 770 LT ST
4531 770 MT 4531 770 LT 4538 806 LT 4824 806 LT 4831 770 LT ST
(8'h03) 230 LC 4866 770 WT pop 0 originOffset 33 add RSS
4831 770 MT 4831 770 LT 4838 734 LT 5124 734 LT 5131 770 LT ST
4831 770 MT 4831 770 LT 4838 806 LT 5124 806 LT 5131 770 LT ST
(8'h02) 229 LC 5166 770 WT pop 0 originOffset 33 add RSS
5131 770 MT 5131 770 LT 5138 734 LT 5423 734 LT 5430 770 LT ST
5131 770 MT 5131 770 LT 5138 806 LT 5423 806 LT 5430 770 LT ST
(8'h01) 230 LC 5465 770 WT pop 0 originOffset 33 add RSS
5430 770 MT 5430 770 LT 5437 734 LT 5723 734 LT 5730 770 LT ST
5430 770 MT 5430 770 LT 5437 806 LT 5723 806 LT 5730 770 LT ST
(8'h00) 229 LC 5765 770 WT pop 0 originOffset 33 add RSS
5730 770 MT 5730 770 LT 5737 734 LT 6022 734 LT 6029 770 LT ST
5730 770 MT 5730 770 LT 5737 806 LT 6022 806 LT 6029 770 LT ST
(8'h07) 380 LC 6064 770 WT pop 0 originOffset 33 add RSS
6029 770 MT 6029 770 LT 6036 734 LT 6479 734 LT ST
6029 770 MT 6029 770 LT 6036 806 LT 6479 806 LT ST
488 889 MT 3633 889 LS
(8'h0d) 229 LC 3668 889 WT pop 0 originOffset 33 add RSS
3633 888 MT 3633 888 LT 3640 853 LT 3925 853 LT 3932 889 LT ST
3633 890 MT 3633 890 LT 3640 925 LT 3925 925 LT 3932 889 LT ST
(8'h0b) 230 LC 3967 889 WT pop 0 originOffset 33 add RSS
3932 889 MT 3932 889 LT 3939 853 LT 4225 853 LT 4232 889 LT ST
3932 889 MT 3932 889 LT 3939 925 LT 4225 925 LT 4232 889 LT ST
(8'h09) 229 LC 4267 889 WT pop 0 originOffset 33 add RSS
4232 889 MT 4232 889 LT 4239 853 LT 4524 853 LT 4531 889 LT ST
4232 889 MT 4232 889 LT 4239 925 LT 4524 925 LT 4531 889 LT ST
(8'h07) 230 LC 4566 889 WT pop 0 originOffset 33 add RSS
4531 889 MT 4531 889 LT 4538 853 LT 4824 853 LT 4831 889 LT ST
4531 889 MT 4531 889 LT 4538 925 LT 4824 925 LT 4831 889 LT ST
(8'h05) 230 LC 4866 889 WT pop 0 originOffset 33 add RSS
4831 889 MT 4831 889 LT 4838 853 LT 5124 853 LT 5131 889 LT ST
4831 889 MT 4831 889 LT 4838 925 LT 5124 925 LT 5131 889 LT ST
(8'h03) 229 LC 5166 889 WT pop 0 originOffset 33 add RSS
5131 889 MT 5131 889 LT 5138 853 LT 5423 853 LT 5430 889 LT ST
5131 889 MT 5131 889 LT 5138 925 LT 5423 925 LT 5430 889 LT ST
(8'h01) 230 LC 5465 889 WT pop 0 originOffset 33 add RSS
5430 889 MT 5430 889 LT 5437 853 LT 5723 853 LT 5730 889 LT ST
5430 889 MT 5430 889 LT 5437 925 LT 5723 925 LT 5730 889 LT ST
(8'h07) 229 LC 5765 889 WT pop 0 originOffset 33 add RSS
5730 889 MT 5730 889 LT 5737 853 LT 6022 853 LT 6029 889 LT ST
5730 889 MT 5730 889 LT 5737 925 LT 6022 925 LT 6029 889 LT ST
(8'h0e) 380 LC 6064 889 WT pop 0 originOffset 33 add RSS
6029 889 MT 6029 889 LT 6036 853 LT 6479 853 LT ST
6029 889 MT 6029 889 LT 6036 925 LT 6479 925 LT ST
488 1008 MT 3633 1008 LS
(8'h01) 2027 LC 3668 1008 WT pop 0 originOffset 33 add RSS
3633 1007 MT 3633 1007 LT 3640 972 LT 5723 972 LT 5730 1008 LT ST
3633 1009 MT 3633 1009 LT 3640 1044 LT 5723 1044 LT 5730 1008 LT ST
(8'hf9) 229 LC 5765 1008 WT pop 0 originOffset 33 add RSS
5730 1008 MT 5730 1008 LT 5737 972 LT 6022 972 LT 6029 1008 LT ST
5730 1008 MT 5730 1008 LT 5737 1044 LT 6022 1044 LT 6029 1008 LT ST
(8'h00) 380 LC 6064 1008 WT pop 0 originOffset 33 add RSS
6029 1008 MT 6029 1008 LT 6036 972 LT 6479 972 LT ST
6029 1008 MT 6029 1008 LT 6036 1044 LT 6479 1044 LT ST
(2'h0) 3674 LC 523 1127 WT pop 0 originOffset 33 add RSS
488 1127 MT 488 1127 LT 495 1091 LT 4225 1091 LT 4232 1127 LT ST
488 1127 MT 488 1127 LT 495 1163 LT 4225 1163 LT 4232 1127 LT ST
(2'h1) 529 LC 4267 1127 WT pop 0 originOffset 33 add RSS
4232 1127 MT 4232 1127 LT 4239 1091 LT 4824 1091 LT 4831 1127 LT ST
4232 1127 MT 4232 1127 LT 4239 1163 LT 4824 1163 LT 4831 1127 LT ST
(2'h2) 529 LC 4866 1127 WT pop 0 originOffset 33 add RSS
4831 1127 MT 4831 1127 LT 4838 1091 LT 5423 1091 LT 5430 1127 LT ST
4831 1127 MT 4831 1127 LT 4838 1163 LT 5423 1163 LT 5430 1127 LT ST
(2'h3) 529 LC 5465 1127 WT pop 0 originOffset 33 add RSS
5430 1127 MT 5430 1127 LT 5437 1091 LT 6022 1091 LT 6029 1127 LT ST
5430 1127 MT 5430 1127 LT 5437 1163 LT 6022 1163 LT 6029 1127 LT ST
(2'h0) 380 LC 6064 1127 WT pop 0 originOffset 33 add RSS
6029 1127 MT 6029 1127 LT 6036 1091 LT 6479 1091 LT ST
6029 1127 MT 6029 1127 LT 6036 1163 LT 6479 1163 LT ST
488 1282 MT 488 1246 LS
489 1282 MT 637 1282 LS
637 1282 MT 637 1210 LS
638 1210 MT 3034 1210 LS
3034 1282 MT 3034 1210 LS
3035 1282 MT 6329 1282 LS
6329 1282 MT 6329 1210 LS
6330 1210 MT 6479 1210 LS
6479 1210 MT 6479 1210 LS
488 1401 MT 488 1365 LS
489 1401 MT 637 1401 LS
637 1401 MT 637 1329 LS
638 1329 MT 5430 1329 LS
5430 1401 MT 5430 1329 LS
5431 1401 MT 6329 1401 LS
6329 1401 MT 6329 1329 LS
6330 1329 MT 6479 1329 LS
6479 1329 MT 6479 1329 LS
488 1520 MT 488 1484 LS
489 1520 MT 3633 1520 LS
3633 1520 MT 3633 1448 LS
3634 1448 MT 3932 1448 LS
3932 1520 MT 3932 1448 LS
3933 1520 MT 4232 1520 LS
4232 1520 MT 4232 1448 LS
4233 1448 MT 4531 1448 LS
4531 1520 MT 4531 1448 LS
4532 1520 MT 4831 1520 LS
4831 1520 MT 4831 1448 LS
4832 1448 MT 5131 1448 LS
5131 1520 MT 5131 1448 LS
5132 1520 MT 5430 1520 LS
5430 1520 MT 5430 1448 LS
5431 1448 MT 5730 1448 LS
5730 1520 MT 5730 1448 LS
5731 1520 MT 6479 1520 LS
6479 1520 MT 6479 1520 LS
488 1639 MT 488 1603 LS
489 1639 MT 3932 1639 LS
3932 1639 MT 3932 1567 LS
3933 1567 MT 4232 1567 LS
4232 1639 MT 4232 1567 LS
4233 1639 MT 4531 1639 LS
4531 1639 MT 4531 1567 LS
4532 1567 MT 4831 1567 LS
4831 1639 MT 4831 1567 LS
4832 1639 MT 5131 1639 LS
5131 1639 MT 5131 1567 LS
5132 1567 MT 5430 1567 LS
5430 1639 MT 5430 1567 LS
5431 1639 MT 5730 1639 LS
5730 1639 MT 5730 1567 LS
5731 1567 MT 6029 1567 LS
6029 1639 MT 6029 1567 LS
6030 1639 MT 6479 1639 LS
6479 1639 MT 6479 1639 LS
% draw timeline
(0 ns) 9999 LC 488 4846 WT TS RSS
524 4738 MT 524 4775 LS
523 4757 MT 525 4757 LS
563 4738 MT 563 4775 LS
638 4738 MT 638 4775 LS
713 4738 MT 713 4775 LS
788 4738 MT 788 4775 LS
862 4711 MT 862 4775 LS
937 4738 MT 937 4775 LS
1012 4738 MT 1012 4775 LS
1087 4738 MT 1087 4775 LS
1162 4738 MT 1162 4775 LS
1236 4711 MT 1236 4775 LS
(500 ns) 9999 LC 1236 4846 WT TS RSS
1311 4738 MT 1311 4775 LS
1386 4738 MT 1386 4775 LS
1461 4738 MT 1461 4775 LS
1536 4738 MT 1536 4775 LS
1611 4711 MT 1611 4775 LS
1686 4738 MT 1686 4775 LS
1761 4738 MT 1761 4775 LS
1836 4738 MT 1836 4775 LS
1911 4738 MT 1911 4775 LS
1985 4711 MT 1985 4775 LS
(1000 ns) 9999 LC 1985 4846 WT TS RSS
2060 4738 MT 2060 4775 LS
2135 4738 MT 2135 4775 LS
2210 4738 MT 2210 4775 LS
2285 4738 MT 2285 4775 LS
2360 4711 MT 2360 4775 LS
2435 4738 MT 2435 4775 LS
2510 4738 MT 2510 4775 LS
2585 4738 MT 2585 4775 LS
2660 4738 MT 2660 4775 LS
2734 4711 MT 2734 4775 LS
(1500 ns) 9999 LC 2734 4846 WT TS RSS
2809 4738 MT 2809 4775 LS
2884 4738 MT 2884 4775 LS
2959 4738 MT 2959 4775 LS
3034 4738 MT 3034 4775 LS
3109 4711 MT 3109 4775 LS
3184 4738 MT 3184 4775 LS
3259 4738 MT 3259 4775 LS
3334 4738 MT 3334 4775 LS
3409 4738 MT 3409 4775 LS
3483 4711 MT 3483 4775 LS
(2000 ns) 9999 LC 3483 4846 WT TS RSS
3558 4738 MT 3558 4775 LS
3633 4738 MT 3633 4775 LS
3708 4738 MT 3708 4775 LS
3783 4738 MT 3783 4775 LS
3857 4711 MT 3857 4775 LS
3932 4738 MT 3932 4775 LS
4007 4738 MT 4007 4775 LS
4082 4738 MT 4082 4775 LS
4157 4738 MT 4157 4775 LS
4232 4711 MT 4232 4775 LS
(2500 ns) 9999 LC 4232 4846 WT TS RSS
4307 4738 MT 4307 4775 LS
4382 4738 MT 4382 4775 LS
4457 4738 MT 4457 4775 LS
4532 4738 MT 4532 4775 LS
4606 4711 MT 4606 4775 LS
4681 4738 MT 4681 4775 LS
4756 4738 MT 4756 4775 LS
4831 4738 MT 4831 4775 LS
4906 4738 MT 4906 4775 LS
4981 4711 MT 4981 4775 LS
(3000 ns) 9999 LC 4981 4846 WT TS RSS
5056 4738 MT 5056 4775 LS
5131 4738 MT 5131 4775 LS
5206 4738 MT 5206 4775 LS
5281 4738 MT 5281 4775 LS
5355 4711 MT 5355 4775 LS
5430 4738 MT 5430 4775 LS
5505 4738 MT 5505 4775 LS
5580 4738 MT 5580 4775 LS
5655 4738 MT 5655 4775 LS
5730 4711 MT 5730 4775 LS
(3500 ns) 9999 LC 5730 4846 WT TS RSS
5805 4738 MT 5805 4775 LS
5880 4738 MT 5880 4775 LS
5955 4738 MT 5955 4775 LS
6030 4738 MT 6030 4775 LS
6104 4711 MT 6104 4775 LS
6179 4738 MT 6179 4775 LS
6254 4738 MT 6254 4775 LS
6329 4738 MT 6329 4775 LS
6404 4738 MT 6404 4775 LS
6479 4711 MT 6479 4775 LS
(4000 ns) 9999 LC 6479 4846 WT TS RSS
6554 4738 MT 6554 4775 LS
6629 4738 MT 6629 4775 LS
6704 4738 MT 6704 4775 LS
6779 4738 MT 6779 4775 LS
% draw grid
787 118 MT 787 4711 LS
1087 118 MT 1087 4711 LS
1386 118 MT 1386 4711 LS
1686 118 MT 1686 4711 LS
1985 118 MT 1985 4711 LS
2285 118 MT 2285 4711 LS
2584 118 MT 2584 4711 LS
2884 118 MT 2884 4711 LS
3183 118 MT 3183 4711 LS
3483 118 MT 3483 4711 LS
3783 118 MT 3783 4711 LS
4082 118 MT 4082 4711 LS
4382 118 MT 4382 4711 LS
4681 118 MT 4681 4711 LS
4981 118 MT 4981 4711 LS
5280 118 MT 5280 4711 LS
5580 118 MT 5580 4711 LS
5879 118 MT 5879 4711 LS
6179 118 MT 6179 4711 LS
6479 118 MT 6479 4711 LS
% draw waveforms
(clock) 9999 LC 451 210 WT TSE RSS
780 118 MT 794 118 LS
1080 118 MT 1094 118 LS
1379 118 MT 1393 118 LS
1679 118 MT 1693 118 LS
1978 118 MT 1992 118 LS
2278 118 MT 2292 118 LS
2577 118 MT 2591 118 LS
2877 118 MT 2891 118 LS
3176 118 MT 3190 118 LS
3476 118 MT 3490 118 LS
3776 118 MT 3790 118 LS
4075 118 MT 4089 118 LS
4375 118 MT 4389 118 LS
4674 118 MT 4688 118 LS
4974 118 MT 4988 118 LS
5273 118 MT 5287 118 LS
5573 118 MT 5587 118 LS
5872 118 MT 5886 118 LS
6172 118 MT 6186 118 LS
6472 118 MT 6486 118 LS
488 211 MT 488 175 LS
489 211 MT 637 211 LS
637 211 MT 637 139 LS
638 139 MT 787 139 LS
787 211 MT 787 139 LS
788 211 MT 937 211 LS
937 211 MT 937 139 LS
938 139 MT 1087 139 LS
1087 211 MT 1087 139 LS
1088 211 MT 1236 211 LS
1236 211 MT 1236 139 LS
1237 139 MT 1386 139 LS
1386 211 MT 1386 139 LS
1387 211 MT 1536 211 LS
1536 211 MT 1536 139 LS
1537 139 MT 1686 139 LS
1686 211 MT 1686 139 LS
1687 211 MT 1835 211 LS
1835 211 MT 1835 139 LS
1836 139 MT 1985 139 LS
1985 211 MT 1985 139 LS
1986 211 MT 2135 211 LS
2135 211 MT 2135 139 LS
2136 139 MT 2285 139 LS
2285 211 MT 2285 139 LS
2286 211 MT 2435 211 LS
2435 211 MT 2435 139 LS
2436 139 MT 2584 139 LS
2584 211 MT 2584 139 LS
2585 211 MT 2734 211 LS
2734 211 MT 2734 139 LS
2735 139 MT 2884 139 LS
2884 211 MT 2884 139 LS
2885 211 MT 3034 211 LS
3034 211 MT 3034 139 LS
3035 139 MT 3183 139 LS
3183 211 MT 3183 139 LS
3184 211 MT 3333 211 LS
3333 211 MT 3333 139 LS
3334 139 MT 3483 139 LS
3483 211 MT 3483 139 LS
3484 211 MT 3633 211 LS
3633 211 MT 3633 139 LS
3634 139 MT 3783 139 LS
3783 211 MT 3783 139 LS
3784 211 MT 3932 211 LS
3932 211 MT 3932 139 LS
3933 139 MT 4082 139 LS
4082 211 MT 4082 139 LS
4083 211 MT 4232 211 LS
4232 211 MT 4232 139 LS
4233 139 MT 4382 139 LS
4382 211 MT 4382 139 LS
4383 211 MT 4531 211 LS
4531 211 MT 4531 139 LS
4532 139 MT 4681 139 LS
4681 211 MT 4681 139 LS
4682 211 MT 4831 211 LS
4831 211 MT 4831 139 LS
4832 139 MT 4981 139 LS
4981 211 MT 4981 139 LS
4982 211 MT 5131 211 LS
5131 211 MT 5131 139 LS
5132 139 MT 5280 139 LS
5280 211 MT 5280 139 LS
5281 211 MT 5430 211 LS
5430 211 MT 5430 139 LS
5431 139 MT 5580 139 LS
5580 211 MT 5580 139 LS
5581 211 MT 5730 211 LS
5730 211 MT 5730 139 LS
5731 139 MT 5879 139 LS
5879 211 MT 5879 139 LS
5880 211 MT 6029 211 LS
6029 211 MT 6029 139 LS
6030 139 MT 6179 139 LS
6179 211 MT 6179 139 LS
6180 211 MT 6329 211 LS
6329 211 MT 6329 139 LS
6330 139 MT 6479 139 LS
6479 211 MT 6479 139 LS
6479 211 MT 6479 211 LS
(Reset) 9999 LC 451 329 WT TSE RSS
780 237 MT 794 237 LS
1080 237 MT 1094 237 LS
1379 237 MT 1393 237 LS
1679 237 MT 1693 237 LS
1978 237 MT 1992 237 LS
2278 237 MT 2292 237 LS
2577 237 MT 2591 237 LS
2877 237 MT 2891 237 LS
3176 237 MT 3190 237 LS
3476 237 MT 3490 237 LS
3776 237 MT 3790 237 LS
4075 237 MT 4089 237 LS
4375 237 MT 4389 237 LS
4674 237 MT 4688 237 LS
4974 237 MT 4988 237 LS
5273 237 MT 5287 237 LS
5573 237 MT 5587 237 LS
5872 237 MT 5886 237 LS
6172 237 MT 6186 237 LS
6472 237 MT 6486 237 LS
488 294 MT 488 258 LS
489 258 MT 607 258 LS
607 330 MT 607 258 LS
608 330 MT 6479 330 LS
6479 330 MT 6479 330 LS
(AddrA) 9999 LC 451 448 WT TSE RSS
780 356 MT 794 356 LS
1080 356 MT 1094 356 LS
1379 356 MT 1393 356 LS
1679 356 MT 1693 356 LS
1978 356 MT 1992 356 LS
2278 356 MT 2292 356 LS
2577 356 MT 2591 356 LS
2877 356 MT 2891 356 LS
3176 356 MT 3190 356 LS
3476 356 MT 3490 356 LS
3776 356 MT 3790 356 LS
4075 356 MT 4089 356 LS
4375 356 MT 4389 356 LS
4674 356 MT 4688 356 LS
4974 356 MT 4988 356 LS
5273 356 MT 5287 356 LS
5573 356 MT 5587 356 LS
5872 356 MT 5886 356 LS
6172 356 MT 6186 356 LS
6472 356 MT 6486 356 LS
(3'h0) 379 LC 523 413 WT pop 0 originOffset 33 add RSS
488 413 MT 488 413 LT 495 377 LT 930 377 LT 937 413 LT ST
488 413 MT 488 413 LT 495 449 LT 930 449 LT 937 413 LT ST
(3'h1) 229 LC 972 413 WT pop 0 originOffset 33 add RSS
937 413 MT 937 413 LT 944 377 LT 1229 377 LT 1236 413 LT ST
937 413 MT 937 413 LT 944 449 LT 1229 449 LT 1236 413 LT ST
(3'h2) 230 LC 1271 413 WT pop 0 originOffset 33 add RSS
1236 413 MT 1236 413 LT 1243 377 LT 1529 377 LT 1536 413 LT ST
1236 413 MT 1236 413 LT 1243 449 LT 1529 449 LT 1536 413 LT ST
(3'h3) 229 LC 1571 413 WT pop 0 originOffset 33 add RSS
1536 413 MT 1536 413 LT 1543 377 LT 1828 377 LT 1835 413 LT ST
1536 413 MT 1536 413 LT 1543 449 LT 1828 449 LT 1835 413 LT ST
(3'h4) 230 LC 1870 413 WT pop 0 originOffset 33 add RSS
1835 413 MT 1835 413 LT 1842 377 LT 2128 377 LT 2135 413 LT ST
1835 413 MT 1835 413 LT 1842 449 LT 2128 449 LT 2135 413 LT ST
(3'h5) 230 LC 2170 413 WT pop 0 originOffset 33 add RSS
2135 413 MT 2135 413 LT 2142 377 LT 2428 377 LT 2435 413 LT ST
2135 413 MT 2135 413 LT 2142 449 LT 2428 449 LT 2435 413 LT ST
(3'h6) 229 LC 2470 413 WT pop 0 originOffset 33 add RSS
2435 413 MT 2435 413 LT 2442 377 LT 2727 377 LT 2734 413 LT ST
2435 413 MT 2435 413 LT 2442 449 LT 2727 449 LT 2734 413 LT ST
(3'h7) 230 LC 2769 413 WT pop 0 originOffset 33 add RSS
2734 413 MT 2734 413 LT 2741 377 LT 3027 377 LT 3034 413 LT ST
2734 413 MT 2734 413 LT 2741 449 LT 3027 449 LT 3034 413 LT ST
(3'h0) 229 LC 3069 413 WT pop 0 originOffset 33 add RSS
3034 413 MT 3034 413 LT 3041 377 LT 3326 377 LT 3333 413 LT ST
3034 413 MT 3034 413 LT 3041 449 LT 3326 449 LT 3333 413 LT ST
(3'h1) 230 LC 3368 413 WT pop 0 originOffset 33 add RSS
3333 413 MT 3333 413 LT 3340 377 LT 3626 377 LT 3633 413 LT ST
3333 413 MT 3333 413 LT 3340 449 LT 3626 449 LT 3633 413 LT ST
(3'h2) 229 LC 3668 413 WT pop 0 originOffset 33 add RSS
3633 413 MT 3633 413 LT 3640 377 LT 3925 377 LT 3932 413 LT ST
3633 413 MT 3633 413 LT 3640 449 LT 3925 449 LT 3932 413 LT ST
(3'h3) 230 LC 3967 413 WT pop 0 originOffset 33 add RSS
3932 413 MT 3932 413 LT 3939 377 LT 4225 377 LT 4232 413 LT ST
3932 413 MT 3932 413 LT 3939 449 LT 4225 449 LT 4232 413 LT ST
(3'h4) 229 LC 4267 413 WT pop 0 originOffset 33 add RSS
4232 413 MT 4232 413 LT 4239 377 LT 4524 377 LT 4531 413 LT ST
4232 413 MT 4232 413 LT 4239 449 LT 4524 449 LT 4531 413 LT ST
(3'h5) 230 LC 4566 413 WT pop 0 originOffset 33 add RSS
4531 413 MT 4531 413 LT 4538 377 LT 4824 377 LT 4831 413 LT ST
4531 413 MT 4531 413 LT 4538 449 LT 4824 449 LT 4831 413 LT ST
(3'h6) 230 LC 4866 413 WT pop 0 originOffset 33 add RSS
4831 413 MT 4831 413 LT 4838 377 LT 5124 377 LT 5131 413 LT ST
4831 413 MT 4831 413 LT 4838 449 LT 5124 449 LT 5131 413 LT ST
(3'h7) 229 LC 5166 413 WT pop 0 originOffset 33 add RSS
5131 413 MT 5131 413 LT 5138 377 LT 5423 377 LT 5430 413 LT ST
5131 413 MT 5131 413 LT 5138 449 LT 5423 449 LT 5430 413 LT ST
(3'h0) 979 LC 5465 413 WT pop 0 originOffset 33 add RSS
5430 413 MT 5430 413 LT 5437 377 LT 6479 377 LT ST
5430 413 MT 5430 413 LT 5437 449 LT 6479 449 LT ST
(DataInA) 9999 LC 451 567 WT TSE RSS
780 475 MT 794 475 LS
1080 475 MT 1094 475 LS
1379 475 MT 1393 475 LS
1679 475 MT 1693 475 LS
1978 475 MT 1992 475 LS
2278 475 MT 2292 475 LS
2577 475 MT 2591 475 LS
2877 475 MT 2891 475 LS
3176 475 MT 3190 475 LS
3476 475 MT 3490 475 LS
3776 475 MT 3790 475 LS
4075 475 MT 4089 475 LS
4375 475 MT 4389 475 LS
4674 475 MT 4688 475 LS
4974 475 MT 4988 475 LS
5273 475 MT 5287 475 LS
5573 475 MT 5587 475 LS
5872 475 MT 5886 475 LS
6172 475 MT 6186 475 LS
6472 475 MT 6486 475 LS
488 532 MT 652 532 LS
(8'h07) 230 LC 687 532 WT pop 0 originOffset 33 add RSS
652 531 MT 652 531 LT 659 496 LT 945 496 LT 952 532 LT ST
652 533 MT 652 533 LT 659 568 LT 945 568 LT 952 532 LT ST
(8'h06) 229 LC 987 532 WT pop 0 originOffset 33 add RSS
952 532 MT 952 532 LT 959 496 LT 1244 496 LT 1251 532 LT ST
952 532 MT 952 532 LT 959 568 LT 1244 568 LT 1251 532 LT ST
(8'h05) 230 LC 1286 532 WT pop 0 originOffset 33 add RSS
1251 532 MT 1251 532 LT 1258 496 LT 1544 496 LT 1551 532 LT ST
1251 532 MT 1251 532 LT 1258 568 LT 1544 568 LT 1551 532 LT ST
(8'h04) 229 LC 1586 532 WT pop 0 originOffset 33 add RSS
1551 532 MT 1551 532 LT 1558 496 LT 1843 496 LT 1850 532 LT ST
1551 532 MT 1551 532 LT 1558 568 LT 1843 568 LT 1850 532 LT ST
(8'h03) 230 LC 1885 532 WT pop 0 originOffset 33 add RSS
1850 532 MT 1850 532 LT 1857 496 LT 2143 496 LT 2150 532 LT ST
1850 532 MT 1850 532 LT 1857 568 LT 2143 568 LT 2150 532 LT ST
(8'h02) 230 LC 2185 532 WT pop 0 originOffset 33 add RSS
2150 532 MT 2150 532 LT 2157 496 LT 2443 496 LT 2450 532 LT ST
2150 532 MT 2150 532 LT 2157 568 LT 2443 568 LT 2450 532 LT ST
(8'h01) 229 LC 2485 532 WT pop 0 originOffset 33 add RSS
2450 532 MT 2450 532 LT 2457 496 LT 2742 496 LT 2749 532 LT ST
2450 532 MT 2450 532 LT 2457 568 LT 2742 568 LT 2749 532 LT ST
(8'h00) 3660 LC 2784 532 WT pop 0 originOffset 33 add RSS
2749 532 MT 2749 532 LT 2756 496 LT 6479 496 LT ST
2749 532 MT 2749 532 LT 2756 568 LT 6479 568 LT ST
(DOut1) 9999 LC 451 686 WT TSE RSS
780 594 MT 794 594 LS
1080 594 MT 1094 594 LS
1379 594 MT 1393 594 LS
1679 594 MT 1693 594 LS
1978 594 MT 1992 594 LS
2278 594 MT 2292 594 LS
2577 594 MT 2591 594 LS
2877 594 MT 2891 594 LS
3176 594 MT 3190 594 LS
3476 594 MT 3490 594 LS
3776 594 MT 3790 594 LS
4075 594 MT 4089 594 LS
4375 594 MT 4389 594 LS
4674 594 MT 4688 594 LS
4974 594 MT 4988 594 LS
5273 594 MT 5287 594 LS
5573 594 MT 5587 594 LS
5872 594 MT 5886 594 LS
6172 594 MT 6186 594 LS
6472 594 MT 6486 594 LS
488 651 MT 3333 651 LS
(8'h07) 230 LC 3368 651 WT pop 0 originOffset 33 add RSS
3333 650 MT 3333 650 LT 3340 615 LT 3626 615 LT 3633 651 LT ST
3333 652 MT 3333 652 LT 3340 687 LT 3626 687 LT 3633 651 LT ST
(8'h06) 229 LC 3668 651 WT pop 0 originOffset 33 add RSS
3633 651 MT 3633 651 LT 3640 615 LT 3925 615 LT 3932 651 LT ST
3633 651 MT 3633 651 LT 3640 687 LT 3925 687 LT 3932 651 LT ST
(8'h05) 230 LC 3967 651 WT pop 0 originOffset 33 add RSS
3932 651 MT 3932 651 LT 3939 615 LT 4225 615 LT 4232 651 LT ST
3932 651 MT 3932 651 LT 3939 687 LT 4225 687 LT 4232 651 LT ST
(8'h04) 229 LC 4267 651 WT pop 0 originOffset 33 add RSS
4232 651 MT 4232 651 LT 4239 615 LT 4524 615 LT 4531 651 LT ST
4232 651 MT 4232 651 LT 4239 687 LT 4524 687 LT 4531 651 LT ST
(8'h03) 230 LC 4566 651 WT pop 0 originOffset 33 add RSS
4531 651 MT 4531 651 LT 4538 615 LT 4824 615 LT 4831 651 LT ST
4531 651 MT 4531 651 LT 4538 687 LT 4824 687 LT 4831 651 LT ST
(8'h02) 230 LC 4866 651 WT pop 0 originOffset 33 add RSS
4831 651 MT 4831 651 LT 4838 615 LT 5124 615 LT 5131 651 LT ST
4831 651 MT 4831 651 LT 4838 687 LT 5124 687 LT 5131 651 LT ST
(8'h01) 229 LC 5166 651 WT pop 0 originOffset 33 add RSS
5131 651 MT 5131 651 LT 5138 615 LT 5423 615 LT 5430 651 LT ST
5131 651 MT 5131 651 LT 5138 687 LT 5423 687 LT 5430 651 LT ST
(8'h00) 230 LC 5465 651 WT pop 0 originOffset 33 add RSS
5430 651 MT 5430 651 LT 5437 615 LT 5723 615 LT 5730 651 LT ST
5430 651 MT 5430 651 LT 5437 687 LT 5723 687 LT 5730 651 LT ST
(8'h07) 679 LC 5765 651 WT pop 0 originOffset 33 add RSS
5730 651 MT 5730 651 LT 5737 615 LT 6479 615 LT ST
5730 651 MT 5730 651 LT 5737 687 LT 6479 687 LT ST
(DOut2) 9999 LC 451 805 WT TSE RSS
780 713 MT 794 713 LS
1080 713 MT 1094 713 LS
1379 713 MT 1393 713 LS
1679 713 MT 1693 713 LS
1978 713 MT 1992 713 LS
2278 713 MT 2292 713 LS
2577 713 MT 2591 713 LS
2877 713 MT 2891 713 LS
3176 713 MT 3190 713 LS
3476 713 MT 3490 713 LS
3776 713 MT 3790 713 LS
4075 713 MT 4089 713 LS
4375 713 MT 4389 713 LS
4674 713 MT 4688 713 LS
4974 713 MT 4988 713 LS
5273 713 MT 5287 713 LS
5573 713 MT 5587 713 LS
5872 713 MT 5886 713 LS
6172 713 MT 6186 713 LS
6472 713 MT 6486 713 LS
488 770 MT 3633 770 LS
(8'h07) 229 LC 3668 770 WT pop 0 originOffset 33 add RSS
3633 769 MT 3633 769 LT 3640 734 LT 3925 734 LT 3932 770 LT ST
3633 771 MT 3633 771 LT 3640 806 LT 3925 806 LT 3932 770 LT ST
(8'h06) 230 LC 3967 770 WT pop 0 originOffset 33 add RSS
3932 770 MT 3932 770 LT 3939 734 LT 4225 734 LT 4232 770 LT ST
3932 770 MT 3932 770 LT 3939 806 LT 4225 806 LT 4232 770 LT ST
(8'h05) 229 LC 4267 770 WT pop 0 originOffset 33 add RSS
4232 770 MT 4232 770 LT 4239 734 LT 4524 734 LT 4531 770 LT ST
4232 770 MT 4232 770 LT 4239 806 LT 4524 806 LT 4531 770 LT ST
(8'h04) 230 LC 4566 770 WT pop 0 originOffset 33 add RSS
4531 770 MT 4531 770 LT 4538 734 LT 4824 734 LT 4831 770 LT ST
4531 770 MT 4531 770 LT 4538 806 LT 4824 806 LT 4831 770 LT ST
(8'h03) 230 LC 4866 770 WT pop 0 originOffset 33 add RSS
4831 770 MT 4831 770 LT 4838 734 LT 5124 734 LT 5131 770 LT ST
4831 770 MT 4831 770 LT 4838 806 LT 5124 806 LT 5131 770 LT ST
(8'h02) 229 LC 5166 770 WT pop 0 originOffset 33 add RSS
5131 770 MT 5131 770 LT 5138 734 LT 5423 734 LT 5430 770 LT ST
5131 770 MT 5131 770 LT 5138 806 LT 5423 806 LT 5430 770 LT ST
(8'h01) 230 LC 5465 770 WT pop 0 originOffset 33 add RSS
5430 770 MT 5430 770 LT 5437 734 LT 5723 734 LT 5730 770 LT ST
5430 770 MT 5430 770 LT 5437 806 LT 5723 806 LT 5730 770 LT ST
(8'h00) 229 LC 5765 770 WT pop 0 originOffset 33 add RSS
5730 770 MT 5730 770 LT 5737 734 LT 6022 734 LT 6029 770 LT ST
5730 770 MT 5730 770 LT 5737 806 LT 6022 806 LT 6029 770 LT ST
(8'h07) 380 LC 6064 770 WT pop 0 originOffset 33 add RSS
6029 770 MT 6029 770 LT 6036 734 LT 6479 734 LT ST
6029 770 MT 6029 770 LT 6036 806 LT 6479 806 LT ST
(ADDOut) 9999 LC 451 924 WT TSE RSS
780 832 MT 794 832 LS
1080 832 MT 1094 832 LS
1379 832 MT 1393 832 LS
1679 832 MT 1693 832 LS
1978 832 MT 1992 832 LS
2278 832 MT 2292 832 LS
2577 832 MT 2591 832 LS
2877 832 MT 2891 832 LS
3176 832 MT 3190 832 LS
3476 832 MT 3490 832 LS
3776 832 MT 3790 832 LS
4075 832 MT 4089 832 LS
4375 832 MT 4389 832 LS
4674 832 MT 4688 832 LS
4974 832 MT 4988 832 LS
5273 832 MT 5287 832 LS
5573 832 MT 5587 832 LS
5872 832 MT 5886 832 LS
6172 832 MT 6186 832 LS
6472 832 MT 6486 832 LS
488 889 MT 3633 889 LS
(8'h0d) 229 LC 3668 889 WT pop 0 originOffset 33 add RSS
3633 888 MT 3633 888 LT 3640 853 LT 3925 853 LT 3932 889 LT ST
3633 890 MT 3633 890 LT 3640 925 LT 3925 925 LT 3932 889 LT ST
(8'h0b) 230 LC 3967 889 WT pop 0 originOffset 33 add RSS
3932 889 MT 3932 889 LT 3939 853 LT 4225 853 LT 4232 889 LT ST
3932 889 MT 3932 889 LT 3939 925 LT 4225 925 LT 4232 889 LT ST
(8'h09) 229 LC 4267 889 WT pop 0 originOffset 33 add RSS
4232 889 MT 4232 889 LT 4239 853 LT 4524 853 LT 4531 889 LT ST
4232 889 MT 4232 889 LT 4239 925 LT 4524 925 LT 4531 889 LT ST
(8'h07) 230 LC 4566 889 WT pop 0 originOffset 33 add RSS
4531 889 MT 4531 889 LT 4538 853 LT 4824 853 LT 4831 889 LT ST
4531 889 MT 4531 889 LT 4538 925 LT 4824 925 LT 4831 889 LT ST
(8'h05) 230 LC 4866 889 WT pop 0 originOffset 33 add RSS
4831 889 MT 4831 889 LT 4838 853 LT 5124 853 LT 5131 889 LT ST
4831 889 MT 4831 889 LT 4838 925 LT 5124 925 LT 5131 889 LT ST
(8'h03) 229 LC 5166 889 WT pop 0 originOffset 33 add RSS
5131 889 MT 5131 889 LT 5138 853 LT 5423 853 LT 5430 889 LT ST
5131 889 MT 5131 889 LT 5138 925 LT 5423 925 LT 5430 889 LT ST
(8'h01) 230 LC 5465 889 WT pop 0 originOffset 33 add RSS
5430 889 MT 5430 889 LT 5437 853 LT 5723 853 LT 5730 889 LT ST
5430 889 MT 5430 889 LT 5437 925 LT 5723 925 LT 5730 889 LT ST
(8'h07) 229 LC 5765 889 WT pop 0 originOffset 33 add RSS
5730 889 MT 5730 889 LT 5737 853 LT 6022 853 LT 6029 889 LT ST
5730 889 MT 5730 889 LT 5737 925 LT 6022 925 LT 6029 889 LT ST
(8'h0e) 380 LC 6064 889 WT pop 0 originOffset 33 add RSS
6029 889 MT 6029 889 LT 6036 853 LT 6479 853 LT ST
6029 889 MT 6029 889 LT 6036 925 LT 6479 925 LT ST
(SUBOut) 9999 LC 451 1043 WT TSE RSS
780 951 MT 794 951 LS
1080 951 MT 1094 951 LS
1379 951 MT 1393 951 LS
1679 951 MT 1693 951 LS
1978 951 MT 1992 951 LS
2278 951 MT 2292 951 LS
2577 951 MT 2591 951 LS
2877 951 MT 2891 951 LS
3176 951 MT 3190 951 LS
3476 951 MT 3490 951 LS
3776 951 MT 3790 951 LS
4075 951 MT 4089 951 LS
4375 951 MT 4389 951 LS
4674 951 MT 4688 951 LS
4974 951 MT 4988 951 LS
5273 951 MT 5287 951 LS
5573 951 MT 5587 951 LS
5872 951 MT 5886 951 LS
6172 951 MT 6186 951 LS
6472 951 MT 6486 951 LS
488 1008 MT 3633 1008 LS
(8'h01) 2027 LC 3668 1008 WT pop 0 originOffset 33 add RSS
3633 1007 MT 3633 1007 LT 3640 972 LT 5723 972 LT 5730 1008 LT ST
3633 1009 MT 3633 1009 LT 3640 1044 LT 5723 1044 LT 5730 1008 LT ST
(8'hf9) 229 LC 5765 1008 WT pop 0 originOffset 33 add RSS
5730 1008 MT 5730 1008 LT 5737 972 LT 6022 972 LT 6029 1008 LT ST
5730 1008 MT 5730 1008 LT 5737 1044 LT 6022 1044 LT 6029 1008 LT ST
(8'h00) 380 LC 6064 1008 WT pop 0 originOffset 33 add RSS
6029 1008 MT 6029 1008 LT 6036 972 LT 6479 972 LT ST
6029 1008 MT 6029 1008 LT 6036 1044 LT 6479 1044 LT ST
(AddrB) 9999 LC 451 1162 WT TSE RSS
780 1070 MT 794 1070 LS
1080 1070 MT 1094 1070 LS
1379 1070 MT 1393 1070 LS
1679 1070 MT 1693 1070 LS
1978 1070 MT 1992 1070 LS
2278 1070 MT 2292 1070 LS
2577 1070 MT 2591 1070 LS
2877 1070 MT 2891 1070 LS
3176 1070 MT 3190 1070 LS
3476 1070 MT 3490 1070 LS
3776 1070 MT 3790 1070 LS
4075 1070 MT 4089 1070 LS
4375 1070 MT 4389 1070 LS
4674 1070 MT 4688 1070 LS
4974 1070 MT 4988 1070 LS
5273 1070 MT 5287 1070 LS
5573 1070 MT 5587 1070 LS
5872 1070 MT 5886 1070 LS
6172 1070 MT 6186 1070 LS
6472 1070 MT 6486 1070 LS
(2'h0) 3674 LC 523 1127 WT pop 0 originOffset 33 add RSS
488 1127 MT 488 1127 LT 495 1091 LT 4225 1091 LT 4232 1127 LT ST
488 1127 MT 488 1127 LT 495 1163 LT 4225 1163 LT 4232 1127 LT ST
(2'h1) 529 LC 4267 1127 WT pop 0 originOffset 33 add RSS
4232 1127 MT 4232 1127 LT 4239 1091 LT 4824 1091 LT 4831 1127 LT ST
4232 1127 MT 4232 1127 LT 4239 1163 LT 4824 1163 LT 4831 1127 LT ST
(2'h2) 529 LC 4866 1127 WT pop 0 originOffset 33 add RSS
4831 1127 MT 4831 1127 LT 4838 1091 LT 5423 1091 LT 5430 1127 LT ST
4831 1127 MT 4831 1127 LT 4838 1163 LT 5423 1163 LT 5430 1127 LT ST
(2'h3) 529 LC 5465 1127 WT pop 0 originOffset 33 add RSS
5430 1127 MT 5430 1127 LT 5437 1091 LT 6022 1091 LT 6029 1127 LT ST
5430 1127 MT 5430 1127 LT 5437 1163 LT 6022 1163 LT 6029 1127 LT ST
(2'h0) 380 LC 6064 1127 WT pop 0 originOffset 33 add RSS
6029 1127 MT 6029 1127 LT 6036 1091 LT 6479 1091 LT ST
6029 1127 MT 6029 1127 LT 6036 1163 LT 6479 1163 LT ST
(WEA) 9999 LC 451 1281 WT TSE RSS
780 1189 MT 794 1189 LS
1080 1189 MT 1094 1189 LS
1379 1189 MT 1393 1189 LS
1679 1189 MT 1693 1189 LS
1978 1189 MT 1992 1189 LS
2278 1189 MT 2292 1189 LS
2577 1189 MT 2591 1189 LS
2877 1189 MT 2891 1189 LS
3176 1189 MT 3190 1189 LS
3476 1189 MT 3490 1189 LS
3776 1189 MT 3790 1189 LS
4075 1189 MT 4089 1189 LS
4375 1189 MT 4389 1189 LS
4674 1189 MT 4688 1189 LS
4974 1189 MT 4988 1189 LS
5273 1189 MT 5287 1189 LS
5573 1189 MT 5587 1189 LS
5872 1189 MT 5886 1189 LS
6172 1189 MT 6186 1189 LS
6472 1189 MT 6486 1189 LS
488 1282 MT 488 1246 LS
489 1282 MT 637 1282 LS
637 1282 MT 637 1210 LS
638 1210 MT 3034 1210 LS
3034 1282 MT 3034 1210 LS
3035 1282 MT 6329 1282 LS
6329 1282 MT 6329 1210 LS
6330 1210 MT 6479 1210 LS
6479 1210 MT 6479 1210 LS
(IncA) 9999 LC 451 1400 WT TSE RSS
780 1308 MT 794 1308 LS
1080 1308 MT 1094 1308 LS
1379 1308 MT 1393 1308 LS
1679 1308 MT 1693 1308 LS
1978 1308 MT 1992 1308 LS
2278 1308 MT 2292 1308 LS
2577 1308 MT 2591 1308 LS
2877 1308 MT 2891 1308 LS
3176 1308 MT 3190 1308 LS
3476 1308 MT 3490 1308 LS
3776 1308 MT 3790 1308 LS
4075 1308 MT 4089 1308 LS
4375 1308 MT 4389 1308 LS
4674 1308 MT 4688 1308 LS
4974 1308 MT 4988 1308 LS
5273 1308 MT 5287 1308 LS
5573 1308 MT 5587 1308 LS
5872 1308 MT 5886 1308 LS
6172 1308 MT 6186 1308 LS
6472 1308 MT 6486 1308 LS
488 1401 MT 488 1365 LS
489 1401 MT 637 1401 LS
637 1401 MT 637 1329 LS
638 1329 MT 5430 1329 LS
5430 1401 MT 5430 1329 LS
5431 1401 MT 6329 1401 LS
6329 1401 MT 6329 1329 LS
6330 1329 MT 6479 1329 LS
6479 1329 MT 6479 1329 LS
(WEB) 9999 LC 451 1519 WT TSE RSS
780 1427 MT 794 1427 LS
1080 1427 MT 1094 1427 LS
1379 1427 MT 1393 1427 LS
1679 1427 MT 1693 1427 LS
1978 1427 MT 1992 1427 LS
2278 1427 MT 2292 1427 LS
2577 1427 MT 2591 1427 LS
2877 1427 MT 2891 1427 LS
3176 1427 MT 3190 1427 LS
3476 1427 MT 3490 1427 LS
3776 1427 MT 3790 1427 LS
4075 1427 MT 4089 1427 LS
4375 1427 MT 4389 1427 LS
4674 1427 MT 4688 1427 LS
4974 1427 MT 4988 1427 LS
5273 1427 MT 5287 1427 LS
5573 1427 MT 5587 1427 LS
5872 1427 MT 5886 1427 LS
6172 1427 MT 6186 1427 LS
6472 1427 MT 6486 1427 LS
488 1520 MT 488 1484 LS
489 1520 MT 3633 1520 LS
3633 1520 MT 3633 1448 LS
3634 1448 MT 3932 1448 LS
3932 1520 MT 3932 1448 LS
3933 1520 MT 4232 1520 LS
4232 1520 MT 4232 1448 LS
4233 1448 MT 4531 1448 LS
4531 1520 MT 4531 1448 LS
4532 1520 MT 4831 1520 LS
4831 1520 MT 4831 1448 LS
4832 1448 MT 5131 1448 LS
5131 1520 MT 5131 1448 LS
5132 1520 MT 5430 1520 LS
5430 1520 MT 5430 1448 LS
5431 1448 MT 5730 1448 LS
5730 1520 MT 5730 1448 LS
5731 1520 MT 6479 1520 LS
6479 1520 MT 6479 1520 LS
(IncB) 9999 LC 451 1638 WT TSE RSS
780 1546 MT 794 1546 LS
1080 1546 MT 1094 1546 LS
1379 1546 MT 1393 1546 LS
1679 1546 MT 1693 1546 LS
1978 1546 MT 1992 1546 LS
2278 1546 MT 2292 1546 LS
2577 1546 MT 2591 1546 LS
2877 1546 MT 2891 1546 LS
3176 1546 MT 3190 1546 LS
3476 1546 MT 3490 1546 LS
3776 1546 MT 3790 1546 LS
4075 1546 MT 4089 1546 LS
4375 1546 MT 4389 1546 LS
4674 1546 MT 4688 1546 LS
4974 1546 MT 4988 1546 LS
5273 1546 MT 5287 1546 LS
5573 1546 MT 5587 1546 LS
5872 1546 MT 5886 1546 LS
6172 1546 MT 6186 1546 LS
6472 1546 MT 6486 1546 LS
488 1639 MT 488 1603 LS
489 1639 MT 3932 1639 LS
3932 1639 MT 3932 1567 LS
3933 1567 MT 4232 1567 LS
4232 1639 MT 4232 1567 LS
4233 1639 MT 4531 1639 LS
4531 1639 MT 4531 1567 LS
4532 1567 MT 4831 1567 LS
4831 1639 MT 4831 1567 LS
4832 1639 MT 5131 1639 LS
5131 1639 MT 5131 1567 LS
5132 1567 MT 5430 1567 LS
5430 1639 MT 5430 1567 LS
5431 1639 MT 5730 1639 LS
5730 1639 MT 5730 1567 LS
5731 1567 MT 6029 1567 LS
6029 1639 MT 6029 1567 LS
6030 1639 MT 6479 1639 LS
6479 1639 MT 6479 1639 LS
% draw footer
(Entity:mtm_testbench  Architecture:  Date: Tue Sep 27 16:18:48 PDT 2016   Row: 1 Page: 1) 9999 LC 118 4980 WT TSW RSS
grestore
showpage
%%EOF
